{
  "cviceni": {
    "version": {
      "global": "<%= version %>",
      "content": 2
    },
    "katalog": [
      "public"
    ],
    "language": "cs",
    "slug": "proc-prejmenovali-ulice",
    "nazev": "Proč přejmenovali ulice?",
    "autor": [
      "Petr Sedlák"
    ],
    "klicovaSlova": {
      "rvp": [
        "důsledky druhé světové války"
      ],
      "koncept": [
        "migrace",
        "symboly"
      ],
      "b4": [
        "příčiny a důsledky"
      ],
      "historylab": [
        "porovnáváme zdroje"
      ]
    },
    "casovaOsa": {
      "roky": [
        1945
      ],
      "epochy": [
        {
          "refId": "czech",
          "obdobi": [
            "poválečná doba a nástup komunismu"
          ]
        },
        {
          "refId": "world",
          "obdobi": []
        }
      ]
    },
    "anotace": {
      "ucitel": "Cvičení pracuje s mapou centrální části města Varnsdorfu pořízenou v roce 1941 a 1945. Žáci označují stejné a odlišné prvky na mapách, rozdělují vybrané názvy ulic na novější mapě do tematických skupin a své rozdělení zdůvodňují. Na závěr formulují odpovědi, proč ve městě došlo k přejmenování ulic a o čem svědčí klíč, podle kterého se tak stalo. Cvičení lze využít k doplnění výuky o poválečných změnách v českém pohraničí.",
      "verejna": "Jedno město zachycené na dvou mapách, které od sebe dělí pouhé čtyři roky – a přesto je mezi nimi zásadní rozdíl. Co všechno mohou prozradit nové názvy ulic a náměstí? A proč bylo vlastně potřeba tak rychle vytvořit novou mapu? Zkuste mapy porovnat a s pomocí dobových dokumentů blíže poznejte bouřlivé změny, které v polovině čtyřicátých let proběhly (nejen) ve městě Varnsdorf."
    },
    "trvani": 25,
    "obtiznost": "nízká",
    "funkce": [
      "lupa",
      "cteni",
      "text",
      "svg",
      "znacky"
    ],
    "pdf": {
      "doporucenyPostup": "proc-prejmenovali-ulice.pdf"
    },
    "uvodniObrazek": "proc-prejmenovali-ulice/pic-01-1280w.jpg",
    "id": 83
  },
  "slajd": [
    {
      "zadani": {
        "hlavni": "Na mapách vidíte stejné město. Prohlédněte si obě mapy.",
        "rozsirujici": ""
      },
      "napoveda": {
        "aktivity": [
          "lupa"
        ],
        "text": "Při kliknutí levým tlačítkem do obrazu lupa přiblíží část obrazu ve výřezu."
      },
      "prameny": [
        "proc-prejmenovali-ulice/pic-00-1280w.jpg",
        "proc-prejmenovali-ulice/pic-01-1280w.jpg"
      ],
      "popisky": [
        "Orientierungs-Plan der Stadt Warnsdorf bearbeitet vom Stadtbauamte im Jahre 1941 (Orientační plán města Varnsdorfu zpracovaný městským stavebním úřadem roku 1941). Zdroj: Muzeum Varnsdorf",
        "Orientační plán města Varnsdorfu, zhotoven městským stavebním úřadem roku 1945. Barevné linie vyznačují hranice městských čtvrtí. Zdroj: Muzeum Varnsdorf"
      ]
    },
    {
      "class": "svg-module",
      "zadani": {
        "hlavni": "Co se změnilo?",
        "rozsirujici": "Červeně ve fotografiích označte, co se změnilo, a modře, co zůstalo stejné. Popište označené prvky."
      },
      "napoveda": {
        "aktivity": [
          "svg"
        ],
        "text": "Kliknutím na snímek levým tlačítkem myši označujete bod. Nakliknutím na bod pravým tlačítkem otevřete menu s nabídkou úkonů: změnit barvu bodu, (T) doplnit textový komentář, (X) smazat nakliknutý objekt."
      },
      "svg": {
        "soubory": [
          {
            "id": "svg-1",
            "soubor": "proc-prejmenovali-ulice/pic-00-1024w.jpg",
            "funkce": [
              "text",
              "znacky"
            ]
          },
          {
            "id": "svg-2",
            "soubor": "proc-prejmenovali-ulice/pic-01-1024w.jpg",
            "funkce": [
              "text",
              "znacky"
            ]
          }
        ]
      },
      "popisky": [
        "Orientierungs-Plan der Stadt Warnsdorf bearbeitet vom Stadtbauamte im Jahre 1941 (Orientační plán města Varnsdorfu zpracovaný městským stavebním úřadem roku 1941). Zdroj: Muzeum Varnsdorf",
        "Orientační plán města Varnsdorfu, zhotoven městským stavebním úřadem roku 1945. Barevné linie vyznačují hranice městských čtvrtí. Zdroj: Muzeum Varnsdorf."
      ]
    },
    {
      "zadani": {
        "hlavni": "Jak přejmenovali ulice?",
        "rozsirujici": "Přečtěte si seznam ulic ve Varnsdorfu přejmenovaných roku 1945. Rozdělte názvy do skupin po pěti podle toho, co mají společného."
      },
      "napoveda": {
        "aktivity": [
          "razeni"
        ],
        "text": "Pomocí drag and drop přesouvejte položky z nabídky do tabulky.<br> Tímto způsobem je lze i odebrat."
      },
      "novaTabulka": {
        "pretahovani": {
          "id": "pretahovani-1",
          "items": [
            {
              "objekt": "náměstí Dr. Eduarda Beneše",
              "medium": "tag"
            },
            {
              "objekt": "Bratislavská",
              "medium": "tag"
            },
            {
              "objekt": "Budějovická",
              "medium": "tag"
            },
            {
              "objekt": "Husova",
              "medium": "tag"
            },
            {
              "objekt": "Jiřího z Poděbrad",
              "medium": "tag"
            },
            {
              "objekt": "třída Maršála Koněva",
              "medium": "tag"
            },
            {
              "objekt": "Mladoboleslavská",
              "medium": "tag"
            },
            {
              "objekt": "třída Boženy Němcové",
              "medium": "tag"
            },
            {
              "objekt": "Palackého",
              "medium": "tag"
            },
            {
              "objekt": "Pardubická",
              "medium": "tag"
            },
            {
              "objekt": "Partyzánů",
              "medium": "tag"
            },
            {
              "objekt": "třída 5. května",
              "medium": "tag"
            },
            {
              "objekt": "třída Generalissima Stalina",
              "medium": "tag"
            },
            {
              "objekt": "Tyršova",
              "medium": "tag"
            },
            {
              "objekt": "Znojemská",
              "medium": "tag"
            }
          ]
        },
        "tabulky": [
          {
            "id": "nova-tabulka-1",
            "dataFrom": [],
            "columns": [
              {
                "id": "text-1-col",
                "name": "Skupina 1",
                "type": "",
                "bg-color": "",
                "values": []
              },
              {
                "id": "text-3-col",
                "name": "Skupina 2",
                "type": "",
                "bg-color": "",
                "values": []
              },
              {
                "id": "text-2-col",
                "name": "Skupina 3",
                "type": "",
                "bg-color": "",
                "values": []
              }
            ],
            "rows": [
              {
                "id": "tags",
                "name": "",
                "type": {
                  "name": "drop",
                  "number": "-1",
                  "type": "tag"
                },
                "bg-color": "",
                "values": []
              }
            ]
          }
        ]
      }
    },
    {
      "zadani": {
        "hlavni": "Podle čeho přejmenovali ulice?",
        "rozsirujici": "U každé skupiny krátce zdůvodněte, jaké názvy a proč jste do ní zařadili."
      },
      "napoveda": {
        "aktivity": [
          "razeni"
        ],
        "text": "Pomocí drag and drop přesouvejte položky z nabídky do tabulky.<br> Tímto způsobem je lze i odebrat."
      },
      "novaTabulka": {
        "tabulky": [
          {
            "id": "nova-tabulka-2",
            "dataFrom": [
              "nova-tabulka-1"
            ],
            "columns": [
              {
                "id": "text-1-col",
                "name": "Skupina 1",
                "type": "",
                "bg-color": "",
                "values": []
              },
              {
                "id": "text-3-col",
                "name": "Skupina 2",
                "type": "",
                "bg-color": "",
                "values": []
              },
              {
                "id": "text-2-col",
                "name": "Skupina 3",
                "type": "",
                "bg-color": "",
                "values": []
              }
            ],
            "rows": [
              {
                "id": "tags",
                "name": "",
                "type": {
                  "name": "dup-text",
                  "type": "tag"
                },
                "bg-color": "",
                "values": []
              }
            ]
          }
        ]
      },
      "uzivatelskyText": {
        "layout": "horizontalni",
        "otazky": [
          {
            "id": "text-1",
            "zadani": "",
            "instrukce": "Názvy jsem zařadil/a do stejné skupiny, protože…",
            "maxDelka": 400
          },
          {
            "id": "text-2",
            "zadani": "",
            "instrukce": "Názvy jsem zařadil/a do stejné skupiny, protože…",
            "maxDelka": 400
          },
          {
            "id": "text-3",
            "zadani": "",
            "instrukce": "Názvy jsem zařadil/a do stejné skupiny, protože…",
            "maxDelka": 400
          }
        ]
      }
    },
    {
      "zadani": {
        "hlavni": "Přečtěte si další prameny v galerii. Odpovězte na otázky.",
        "rozsirujici": ""
      },
      "napoveda": {
        "aktivity": [
          "text"
        ],
        "text": "Do boxu pro text zapisujete odpověď na otázku, nebo jiný komentář (dle zadání)."
      },
      "uzivatelskyText": {
        "layout": "velka-galerie",
        "galerie": [
          {
            "soubor": "proc-prejmenovali-ulice/pic-03-1280w.png",
            "popisek": "Zdroje: Sčítání v Republice československé ze dne 1. prosince 1930, Praha 1934. Varnsdorf: město průmyslu a zahrad, Česká Lípa 2003. Kronika města Varnsdorf, 1945-1983, SOkA Děčín"
          },
          {
            "soubor": "proc-prejmenovali-ulice/pic-02-1280w.jpg",
            "popisek": "Zdroj: NA Praha"
          },
          {
            "typ": "text",
            "objekt": "„K 25. červnu 1945 jsou poprvé přejmenovány ulice, jejichž jména, jak již padlo dříve, mají připomínat města, ze kterých do Varnsdorfu přichází osídlenci, ale i místa spojená s národním bojem o osvobození a osobnosti národního obrození, dále budovatelů československé státnosti atd.“",
            "popisek": "Kronika města Varnsdorf, červen 1945. Zdroj: SOkA Děčín"
          }
        ],
        "otazky": [
          {
            "id": "text-4",
            "zadani": "Proč v roce 1945 ve Varnsdorfu přejmenovali ulice?",
            "instrukce": "Myslím si, že…",
            "maxDelka": 400
          },
          {
            "id": "text-5",
            "zadani": "Proč ulice přejmenovali zvoleným způsobem?",
            "instrukce": "Myslím si, že…",
            "maxDelka": 400
          }
        ]
      }
    }
  ]
}
