{
  "cviceni": {
    "version": {
      "global": "<%= version %>",
      "content": 1
    },
    "katalog": [
      "test"
    ],
    "language": "cs",
    "slug": "co-se-dozvime-z-propagandistickych-plakatu",
    "nazev": "Co se dozvíme z propagandistických plakátů?",
    "autor": [
      "Jaroslav Najbert"
    ],
    "klicovaSlova": {
      "rvp": [
        "totalitní režimy"
      ],
      "koncept": [
        "propaganda"
      ],
      "b4": [
        "dobové perspektivy"
      ],
      "historylab": [
        "porovnáváme zdroje"
      ]
    },
    "casovaOsa": {
      "roky": [
        1934,
        1943
      ],
      "epochy": [
        {
          "refId": "czech",
          "obdobi": []
        },
        {
          "refId": "world",
          "obdobi": [
            "od velké hospodářské krize k válce",
            "druhá světová válka"
          ]
        }
      ]
    },
    "anotace": {
      "ucitel": "Cvičení využívá meziválečné a válečné plakáty z nacisitckého Německa a Sovětského svazu k tomu, aby si žáci vyzkoušeli postup jejich analýzy a interpretace. Volí si dvojici plakátů pro vzájemné srovnání, při kterém zohledňují odlišný historický kontext jejich vzniku.",
      "verejna": "Jak vypadala nacistická a sovětská propaganda? Porovnejte plakáty a zjistěte, jak dobové okolnosti ovlivnily ztvárnění plakátů."
    },
    "trvani": 25,
    "obtiznost": "",
    "funkce": [
      "lupa",
      "cteni",
      "text",
      "svg",
      "znacky",
      "pretahovani"
    ],
    "pdf": {
      "doporucenyPostup": "co-se-dozvime-z-propagandistickych-plakatu.pdf"
    },
    "uvodniObrazek": "co-se-dozvime-z-propagandistickych-plakatu/pic-01-1280w.jpg",
    "id": 92
  },
  "slajd": [
    {
      "zadani": {
        "hlavni": "Prohlédněte si plakáty.",
        "rozsirujici": ""
      },
      "napoveda": {
        "aktivity": [
          "lupa"
        ],
        "text": "Při kliknutí levým tlačítkem do obrazu lupa přiblíží část obrazu ve výřezu."
      },
      "prameny": [
        "co-se-dozvime-z-propagandistickych-plakatu/pic-00-1024h.jpg",
        "co-se-dozvime-z-propagandistickych-plakatu/pic-01-1280w.jpg",
        "co-se-dozvime-z-propagandistickych-plakatu/pic-02-1024h.jpg",
        "co-se-dozvime-z-propagandistickych-plakatu/pic-03-1024h.jpg"
      ],
      "popisky": [
        "Německý meziválečný plakát, 1934. Zdroj: Deutsches Historisches Museum",
        "Sovětský meziválečný plakát, 1935. Zdroj: posterplakat.com",
        "Sovětský válečný plakát, 1943. Zdroj: russianlegacy.com",
        "Německý válečný plakát, 1943. Zdroj: Deutsches Historisches Museum"
      ]
    },
    {
      "zadani": {
        "hlavni": "Co se děje na plakátech?",
        "rozsirujici": "Označte důležité prvky a popište je."
      },
      "napoveda": {
        "aktivity": [
          "svg"
        ],
        "text": [
          "Kliknutím na snímek levým tlačítkem myši označujete bod. Nakliknutím na bod pravým tlačítkem otevřete menu s nabídkou úkonů: změnit barvu bodu, (T) doplnit textový komentář, (X) smazat nakliknutý objekt."
        ]
      },
      "svg": {
        "soubory": [
          {
            "id": "svg-1",
            "soubor": "co-se-dozvime-z-propagandistickych-plakatu/pic-00-640w.jpg",
            "funkce": [
              "text",
              "znacky"
            ]
          },
          {
            "id": "svg-2",
            "soubor": "co-se-dozvime-z-propagandistickych-plakatu/pic-01-640w.jpg",
            "funkce": [
              "text",
              "znacky"
            ]
          },
          {
            "id": "svg-3",
            "soubor": "co-se-dozvime-z-propagandistickych-plakatu/pic-02-640w.jpg",
            "funkce": [
              "text",
              "znacky"
            ]
          },
          {
            "id": "svg-4",
            "soubor": "co-se-dozvime-z-propagandistickych-plakatu/pic-03-640w.jpg",
            "funkce": [
              "text",
              "znacky"
            ]
          }
        ]
      },
      "popisky": [
        "Německý meziválečný plakát, 1934. Zdroj: Deutsches Historisches Museum",
        "Sovětský meziválečný plakát, 1935. Zdroj: posterplakat.com",
        "Sovětský válečný plakát, 1943. Zdroj: russianlegacy.com",
        "Německý válečný plakát, 1943. Zdroj: Deutsches Historisches Museum"
      ]
    },
    {
      "zadani": {
        "hlavni": "Jaký je význam plakátu?",
        "rozsirujici": "Vyberte tři klíčové pojmy z nabídky. Využijte nové informace z popisky."
      },
      "napoveda": {
        "aktivity": [
          "razeni",
          "svg"
        ],
        "text": "Pomocí drag and drop přesouvejte položky z nabídky do obrázku.<br> Do obrázku můžete také kreslit a zapisovat další informace."
      },
      "svg": {
        "pretahovani": {
          "id": "pretahovani-1",
          "items": [
            {
              "objekt": "jednota",
              "medium": "tag"
            },
            {
              "objekt": "nacistická strana",
              "medium": "tag"
            },
            {
              "objekt": "národ",
              "medium": "tag"
            },
            {
              "objekt": "odhodlání",
              "medium": "tag"
            },
            {
              "objekt": "spolehlivost",
              "medium": "tag"
            },
            {
              "objekt": "důvěra",
              "medium": "tag"
            },
            {
              "objekt": "vojenství",
              "medium": "tag"
            },
            {
              "objekt": "utrpení",
              "medium": "tag"
            },
            {
              "objekt": "štěstí",
              "medium": "tag"
            },
            {
              "objekt": "Německo",
              "medium": "tag"
            }
          ]
        },
        "soubory": [
          {
            "id": "svg-5",
            "soubor": "co-se-dozvime-z-propagandistickych-plakatu/pic-00-1024h.jpg",
            "funkce": [
              "text",
              "znacky"
            ],
            "drop": true
          }
        ]
      },
      "popisky": [
        "Plakát vydala Správa říšské propagandy NSDAP před referendem o spojení úřadů říšského prezidenta a kancléře po smrti dosavadního prezidenta maršála Paula von Hindenburga v srpnu 1934. Hitler získal podporu téměř 90 % zúčastněných voličů. Vůdče, budeme tě následovat. Všichni říkají Ano!, 1934. Zdroj: Deutsches Historisches Museum"
      ]
    },
    {
      "zadani": {
        "hlavni": "Jaký je význam plakátu?",
        "rozsirujici": "Vyberte tři klíčové pojmy z nabídky. Využijte nové informace z popisky."
      },
      "napoveda": {
        "aktivity": [
          "razeni",
          "svg"
        ],
        "text": "Pomocí drag and drop přesouvejte položky z nabídky do obrázku.<br> Do obrázku můžete také kreslit a zapisovat další informace."
      },
      "svg": {
        "pretahovani": {
          "id": "pretahovani-2",
          "items": [
            {
              "objekt": "jednota",
              "medium": "tag"
            },
            {
              "objekt": "komunistická strana",
              "medium": "tag"
            },
            {
              "objekt": "národ",
              "medium": "tag"
            },
            {
              "objekt": "odhodlání",
              "medium": "tag"
            },
            {
              "objekt": "dobrosrdečnost",
              "medium": "tag"
            },
            {
              "objekt": "důvěra",
              "medium": "tag"
            },
            {
              "objekt": "uvolněnost",
              "medium": "tag"
            },
            {
              "objekt": "náboženství",
              "medium": "tag"
            },
            {
              "objekt": "strach",
              "medium": "tag"
            },
            {
              "objekt": "Rusko",
              "medium": "tag"
            }
          ]
        },
        "soubory": [
          {
            "id": "svg-6",
            "soubor": "co-se-dozvime-z-propagandistickych-plakatu/pic-01-1024w.jpg",
            "funkce": [
              "text",
              "znacky"
            ],
            "drop": true
          }
        ]
      },
      "popisky": [
        "V roce 1934 vstoupil Sovětský svaz do Společnosti národů a o rok později uzavřel smlouvu o vzájemné pomoci s Francií. Prezentuje se jako stát, který uznává práva národů. Vládní politika ale pronásleduje menšiny, například Ukrajince během velkého hladomoru v letech 1932–⁠1933. Na pozadí plakátu vlají znaky sovětských svazových republik. Gustav Klutsis: Ať žije SSSR - vzor bratrství pracujícího lidu všech národů!, 1935. Zdroj: posterplakat.com"
      ]
    },
    {
      "zadani": {
        "hlavni": "Jaký je význam plakátu?",
        "rozsirujici": "Vyberte tři klíčové pojmy z nabídky. Využijte nové informace z popisky."
      },
      "napoveda": {
        "aktivity": [
          "razeni",
          "svg"
        ],
        "text": "Pomocí drag and drop přesouvejte položky z nabídky do obrázku.<br> Do obrázku můžete také kreslit a zapisovat další informace."
      },
      "svg": {
        "pretahovani": {
          "id": "pretahovani-3",
          "items": [
            {
              "objekt": "jednota",
              "medium": "tag"
            },
            {
              "objekt": "komunistická strana",
              "medium": "tag"
            },
            {
              "objekt": "národ",
              "medium": "tag"
            },
            {
              "objekt": "odhodlání",
              "medium": "tag"
            },
            {
              "objekt": "dobrosrdečnost",
              "medium": "tag"
            },
            {
              "objekt": "důvěra",
              "medium": "tag"
            },
            {
              "objekt": "uvolněnost",
              "medium": "tag"
            },
            {
              "objekt": "náboženství",
              "medium": "tag"
            },
            {
              "objekt": "strach",
              "medium": "tag"
            },
            {
              "objekt": "Rusko",
              "medium": "tag"
            }
          ]
        },
        "soubory": [
          {
            "id": "svg-7",
            "soubor": "co-se-dozvime-z-propagandistickych-plakatu/pic-02-1024h.jpg",
            "funkce": [
              "text",
              "znacky"
            ],
            "drop": true
          }
        ]
      },
      "popisky": [
        "Tradice boje za vlast měla v ruské historické paměti staleté trvání, proto komunistické vedení válku proti nacistickému Německu označilo jako Velkou vlasteneckou válku. Stalin zastavil pronásledování třídních nepřátel včetně kněží, také nechal znovu otevřít kostely. Irakli Toidze: Za vlast!, 1943. Zdroj: russianlegacy.com"
      ]
    },
    {
      "zadani": {
        "hlavni": "Jaký je význam plakátu?",
        "rozsirujici": "Vyberte tři klíčové pojmy z nabídky. Využijte nové informace z popisky."
      },
      "napoveda": {
        "aktivity": [
          "razeni",
          "svg"
        ],
        "text": "Pomocí drag and drop přesouvejte položky z nabídky do obrázku.<br> Do obrázku můžete také kreslit a zapisovat další informace."
      },
      "svg": {
        "pretahovani": {
          "id": "pretahovani-4",
          "items": [
            {
              "objekt": "jednota",
              "medium": "tag"
            },
            {
              "objekt": "nacistická strana",
              "medium": "tag"
            },
            {
              "objekt": "národ",
              "medium": "tag"
            },
            {
              "objekt": "odhodlání",
              "medium": "tag"
            },
            {
              "objekt": "spolehlivost",
              "medium": "tag"
            },
            {
              "objekt": "důvěra",
              "medium": "tag"
            },
            {
              "objekt": "vojenství",
              "medium": "tag"
            },
            {
              "objekt": "utrpení",
              "medium": "tag"
            },
            {
              "objekt": "štěstí",
              "medium": "tag"
            },
            {
              "objekt": "Německo",
              "medium": "tag"
            }
          ]
        },
        "soubory": [
          {
            "id": "svg-8",
            "soubor": "co-se-dozvime-z-propagandistickych-plakatu/pic-03-1024h.jpg",
            "funkce": [
              "text",
              "znacky"
            ],
            "drop": true
          }
        ]
      },
      "popisky": [
        "Po napadení Sovětského svazu byla válka na východní frontě nacisty prezentována jako boj proti bolševismu a „invazi asijských hord”. Nacistická propaganda tvrdila i v případě porážek na bojišti, že válka skončí konečným vítězstvím („Endsieg”). Vítězství, nebo bolševismus, 1943. Zdroj: Deutsches Historisches Museum"
      ]
    },
    {
      "zadani": {
        "hlavni": "Vyberte si z nabízených dvojic plakátů tu, která vás nejvíce zaujala.",
        "rozsirujici": ""
      },
      "napoveda": {
        "aktivity": [
          "vyber"
        ],
        "text": "Výběr provedete kliknutím na položku."
      },
      "vyber": {
        "id": "vyber-1",
        "nastaveni": {
          "layout": "horizontalni",
          "viceOdpovedi": false,
          "disableFeedback": true
        },
        "objekty": [
          {
            "objekt": "co-se-dozvime-z-propagandistickych-plakatu/pic-04-1280w.jpg",
            "data": "V čem se liší zobrazení vůdců?"
          },
          {
            "objekt": "co-se-dozvime-z-propagandistickych-plakatu/pic-05-1280w.jpg",
            "data": "Proč autor válečného plakátu zvolil jako námět ženu s dítětem a ne zobrazení Hitlera?"
          },
          {
            "objekt": "co-se-dozvime-z-propagandistickych-plakatu/pic-06-1280w.jpg",
            "data": "Proč autoři plakátů zobrazují ženy s dětmi?"
          },
          {
            "objekt": "co-se-dozvime-z-propagandistickych-plakatu/pic-07-1280w.jpg",
            "data": "Proč autor válečného plakátu zvolil jako námět ženu s dítětem a ne zobrazení Stalina?"
          }
        ]
      }
    },
    {
      "zadani": {
        "hlavni": "Plakáty ve vybrané dvojici porovnejte a odpovězte na otázky.",
        "rozsirujici": ""
      },
      "napoveda": {
        "aktivity": [
          "text"
        ],
        "text": "Do boxu pro text zapisujete odpověď na otázku, nebo jiný komentář (dle zadání)."
      },
      "uzivatelskyText": {
        "layout": "velka-galerie",
        "galerie": [
          {
            "typ": "vyber",
            "vyberId": "vyber-1"
          }
        ],
        "otazky": [
          {
            "id": "otazka-1",
            "zadani": {
              "from": "vyber-1",
              "placeholder": "Zadání se zobrazí až po výběru položky na předchozím slajdu."
            },
            "instrukce": "Myslím si, že…",
            "minDelka": 10,
            "maxDelka": 400
          },
          {
            "id": "otazka-2",
            "zadani": "Napadá vás ještě nějaká otázka, na kterou byste chtěli znát odpověď?",
            "instrukce": "Zajímalo by mě…",
            "minDelka": 10,
            "maxDelka": 400
          }
        ]
      }
    }
  ]
}
